R you ready?
…
count: false
 
## Basic bar chart
.panel1-my_bar-auto[

```r
*teensTechData2018Rec
```
]
 
.panel2-my_bar-auto[

```
# A tibble: 442 x 8
   SNS2     SOC1                 OH3_1 OH3_2 OH3_7   AGE RACETHNICITY     GENDER
   <fct>    <fct>                <fct> <fct> <fct> <dbl> <fct>            <fct> 
 1 Instagr… Mostly negative      Yes   Yes   No       15 Black, non-Hisp… Male  
 2 Tumblr   Mostly negative      Yes   No    No       17 White, non-Hisp… Male  
 3 YouTube  Mostly negative      No    No    Yes      15 Other, non-Hisp… Female
 4 Twitter  Mostly negative      Yes   No    No       17 Black, non-Hisp… Female
 5 Facebook Mostly negative      Yes   Yes   No       17 Hispanic         Female
 6 Snapchat Mostly negative      No    No    Yes      15 White, non-Hisp… Male  
 7 Snapchat Mostly negative      Yes   No    No       15 Hispanic         Female
 8 Facebook Neither positive no… No    No    Yes      17 White, non-Hisp… Female
 9 Facebook Neither positive no… No    No    Yes      16 White, non-Hisp… Male  
10 <NA>     Mostly negative      No    No    Yes      16 Black, non-Hisp… Male  
# … with 432 more rows
```
…
count: false
 
## Fancy bar chart
.panel1-my_bar_fancy-auto[

```r
*teensTechData2018Rec
```
]
 
.panel2-my_bar_fancy-auto[

```
# A tibble: 442 x 8
   SNS2     SOC1                 OH3_1 OH3_2 OH3_7   AGE RACETHNICITY     GENDER
   <fct>    <fct>                <fct> <fct> <fct> <dbl> <fct>            <fct> 
 1 Instagr… Mostly negative      Yes   Yes   No       15 Black, non-Hisp… Male  
 2 Tumblr   Mostly negative      Yes   No    No       17 White, non-Hisp… Male  
 3 YouTube  Mostly negative      No    No    Yes      15 Other, non-Hisp… Female
 4 Twitter  Mostly negative      Yes   No    No       17 Black, non-Hisp… Female
 5 Facebook Mostly negative      Yes   Yes   No       17 Hispanic         Female
 6 Snapchat Mostly negative      No    No    Yes      15 White, non-Hisp… Male  
 7 Snapchat Mostly negative      Yes   No    No       15 Hispanic         Female
 8 Facebook Neither positive no… No    No    Yes      17 White, non-Hisp… Female
 9 Facebook Neither positive no… No    No    Yes      16 White, non-Hisp… Male  
10 <NA>     Mostly negative      No    No    Yes      16 Black, non-Hisp… Male  
# … with 432 more rows
```
…
## Fancy bar chart
.panel1-my_bar_fancy-auto[

```r
teensTechData2018Rec %>%
* drop_na(SNS2)
```
]
 
.panel2-my_bar_fancy-auto[

```
# A tibble: 398 x 8
   SNS2     SOC1                 OH3_1 OH3_2 OH3_7   AGE RACETHNICITY     GENDER
   <fct>    <fct>                <fct> <fct> <fct> <dbl> <fct>            <fct> 
 1 Instagr… Mostly negative      Yes   Yes   No       15 Black, non-Hisp… Male  
 2 Tumblr   Mostly negative      Yes   No    No       17 White, non-Hisp… Male  
 3 YouTube  Mostly negative      No    No    Yes      15 Other, non-Hisp… Female
 4 Twitter  Mostly negative      Yes   No    No       17 Black, non-Hisp… Female
 5 Facebook Mostly negative      Yes   Yes   No       17 Hispanic         Female
 6 Snapchat Mostly negative      No    No    Yes      15 White, non-Hisp… Male  
 7 Snapchat Mostly negative      Yes   No    No       15 Hispanic         Female
 8 Facebook Neither positive no… No    No    Yes      17 White, non-Hisp… Female
 9 Facebook Neither positive no… No    No    Yes      16 White, non-Hisp… Male  
10 Snapchat Neither positive no… No    Yes   No       15 White, non-Hisp… Male  
# … with 388 more rows
```
…
count: false
 
## Figure 1 code
.panel1-my_bar_fancy_fig1-auto[

```r
*teensTechData2018Rec
```
]
 
.panel2-my_bar_fancy_fig1-auto[

```
# A tibble: 442 x 8
   SNS2     SOC1                 OH3_1 OH3_2 OH3_7   AGE RACETHNICITY     GENDER
   <fct>    <fct>                <fct> <fct> <fct> <dbl> <fct>            <fct> 
 1 Instagr… Mostly negative      Yes   Yes   No       15 Black, non-Hisp… Male  
 2 Tumblr   Mostly negative      Yes   No    No       17 White, non-Hisp… Male  
 3 YouTube  Mostly negative      No    No    Yes      15 Other, non-Hisp… Female
 4 Twitter  Mostly negative      Yes   No    No       17 Black, non-Hisp… Female
 5 Facebook Mostly negative      Yes   Yes   No       17 Hispanic         Female
 6 Snapchat Mostly negative      No    No    Yes      15 White, non-Hisp… Male  
 7 Snapchat Mostly negative      Yes   No    No       15 Hispanic         Female
 8 Facebook Neither positive no… No    No    Yes      17 White, non-Hisp… Female
 9 Facebook Neither positive no… No    No    Yes      16 White, non-Hisp… Male  
10 <NA>     Mostly negative      No    No    Yes      16 Black, non-Hisp… Male  
# … with 432 more rows
```
…
## Figure 1 code
.panel1-my_bar_fancy_fig1-auto[

```r
teensTechData2018Rec %>%
* drop_na(OH3_2)
```
]
 
.panel2-my_bar_fancy_fig1-auto[

```
# A tibble: 442 x 8
   SNS2     SOC1                 OH3_1 OH3_2 OH3_7   AGE RACETHNICITY     GENDER
   <fct>    <fct>                <fct> <fct> <fct> <dbl> <fct>            <fct> 
 1 Instagr… Mostly negative      Yes   Yes   No       15 Black, non-Hisp… Male  
 2 Tumblr   Mostly negative      Yes   No    No       17 White, non-Hisp… Male  
 3 YouTube  Mostly negative      No    No    Yes      15 Other, non-Hisp… Female
 4 Twitter  Mostly negative      Yes   No    No       17 Black, non-Hisp… Female
 5 Facebook Mostly negative      Yes   Yes   No       17 Hispanic         Female
 6 Snapchat Mostly negative      No    No    Yes      15 White, non-Hisp… Male  
 7 Snapchat Mostly negative      Yes   No    No       15 Hispanic         Female
 8 Facebook Neither positive no… No    No    Yes      17 White, non-Hisp… Female
 9 Facebook Neither positive no… No    No    Yes      16 White, non-Hisp… Male  
10 <NA>     Mostly negative      No    No    Yes      16 Black, non-Hisp… Male  
# … with 432 more rows
```
…
count: false
 
## Graph with facets
.panel1-facet_graph-auto[

```r
*teensTechData2018Rec
```
]
 
.panel2-facet_graph-auto[

```
# A tibble: 442 x 8
   SNS2     SOC1                 OH3_1 OH3_2 OH3_7   AGE RACETHNICITY     GENDER
   <fct>    <fct>                <fct> <fct> <fct> <dbl> <fct>            <fct> 
 1 Instagr… Mostly negative      Yes   Yes   No       15 Black, non-Hisp… Male  
 2 Tumblr   Mostly negative      Yes   No    No       17 White, non-Hisp… Male  
 3 YouTube  Mostly negative      No    No    Yes      15 Other, non-Hisp… Female
 4 Twitter  Mostly negative      Yes   No    No       17 Black, non-Hisp… Female
 5 Facebook Mostly negative      Yes   Yes   No       17 Hispanic         Female
 6 Snapchat Mostly negative      No    No    Yes      15 White, non-Hisp… Male  
 7 Snapchat Mostly negative      Yes   No    No       15 Hispanic         Female
 8 Facebook Neither positive no… No    No    Yes      17 White, non-Hisp… Female
 9 Facebook Neither positive no… No    No    Yes      16 White, non-Hisp… Male  
10 <NA>     Mostly negative      No    No    Yes      16 Black, non-Hisp… Male  
# … with 432 more rows
```
…
## Graph with facets
.panel1-facet_graph-auto[

```r
teensTechData2018Rec %>%
* drop_na(OH3_2, GENDER)
```
]
 
.panel2-facet_graph-auto[

```
# A tibble: 441 x 8
   SNS2     SOC1                 OH3_1 OH3_2 OH3_7   AGE RACETHNICITY     GENDER
   <fct>    <fct>                <fct> <fct> <fct> <dbl> <fct>            <fct> 
 1 Instagr… Mostly negative      Yes   Yes   No       15 Black, non-Hisp… Male  
 2 Tumblr   Mostly negative      Yes   No    No       17 White, non-Hisp… Male  
 3 YouTube  Mostly negative      No    No    Yes      15 Other, non-Hisp… Female
 4 Twitter  Mostly negative      Yes   No    No       17 Black, non-Hisp… Female
 5 Facebook Mostly negative      Yes   Yes   No       17 Hispanic         Female
 6 Snapchat Mostly negative      No    No    Yes      15 White, non-Hisp… Male  
 7 Snapchat Mostly negative      Yes   No    No       15 Hispanic         Female
 8 Facebook Neither positive no… No    No    Yes      17 White, non-Hisp… Female
 9 Facebook Neither positive no… No    No    Yes      16 White, non-Hisp… Male  
10 <NA>     Mostly negative      No    No    Yes      16 Black, non-Hisp… Male  
# … with 431 more rows
```
…
